<?xml version="1.0" encoding="utf-8"?>
<!-- Generator: Adobe Illustrator 18.0.0, SVG Export Plug-In . SVG Version: 6.00 Build 0)  -->
<!DOCTYPE svg PUBLIC "-//W3C//DTD SVG 1.1//EN" "http://www.w3.org/Graphics/SVG/1.1/DTD/svg11.dtd">
<svg version="1.1" id="Слой_1" xmlns="http://www.w3.org/2000/svg" xmlns:xlink="http://www.w3.org/1999/xlink" x="0px" y="0px"
	 viewBox="0 0 36 36" enable-background="new 0 0 36 36" xml:space="preserve">
<path fill="#F9F9F9" d="M24.9,25.1l-4.3-4.3c0.9-1,1.4-2.4,1.4-3.9c0-3.3-2.7-6-6-6s-6,2.7-6,6s2.7,6,6,6c1.5,0,2.8-0.5,3.9-1.4
	l4.3,4.3c0.1,0.1,0.2,0.1,0.4,0.1s0.3,0,0.4-0.1C25,25.7,25,25.3,24.9,25.1z M11,17c0-2.8,2.2-5,5-5s5,2.2,5,5s-2.2,5-5,5
	S11,19.8,11,17z"/>
</svg>
