<?xml version="1.0" encoding="utf-8"?>
<!-- Generator: Adobe Illustrator 18.0.0, SVG Export Plug-In . SVG Version: 6.00 Build 0)  -->
<!DOCTYPE svg PUBLIC "-//W3C//DTD SVG 1.1//EN" "http://www.w3.org/Graphics/SVG/1.1/DTD/svg11.dtd">
<svg version="1.1" id="Слой_1" xmlns="http://www.w3.org/2000/svg" xmlns:xlink="http://www.w3.org/1999/xlink" x="0px" y="0px"
	 viewBox="0 0 24 24" enable-background="new 0 0 24 24" xml:space="preserve">
<rect x="7.2" y="11.2" transform="matrix(0.7071 0.7071 -0.7071 0.7071 11.5153 -3.8005)" fill="#FFFFFF" width="6.2" height="1.6"/>
<rect x="10.5" y="11.2" transform="matrix(-0.7071 0.7071 -0.7071 -0.7071 31.7954 10.8299)" fill="#FFFFFF" width="6.2" height="1.6"/>
</svg>
