<?xml version="1.0" encoding="utf-8"?>
<!-- Generator: Adobe Illustrator 18.0.0, SVG Export Plug-In . SVG Version: 6.00 Build 0)  -->
<!DOCTYPE svg PUBLIC "-//W3C//DTD SVG 1.1//EN" "http://www.w3.org/Graphics/SVG/1.1/DTD/svg11.dtd">
<svg version="1.1" id="Слой_1" xmlns="http://www.w3.org/2000/svg" xmlns:xlink="http://www.w3.org/1999/xlink" x="0px" y="0px"
	 viewBox="0 0 32 32" enable-background="new 0 0 32 32" xml:space="preserve">
<g>
	<path fill="#FFFFFF" d="M32,15.9C32.1,24.7,24.8,32,16,32C7.2,32,0.1,24.9,0,16.1C-0.1,7.2,7.1,0,16,0C24.8,0,31.9,7.1,32,15.9z
		 M16,27.5c3.3-0.1,6.2-1.3,8.5-3.8c1.3-1.3,1.2-2.4-0.1-3.6c-3.7-3.5-13.2-3.5-16.9,0c-1.3,1.2-1.3,2.3-0.1,3.6
		C9.8,26.2,12.7,27.4,16,27.5z M16.1,14.4c2.6-0.1,4.7-2.3,4.7-4.8c0-2.7-2.4-4.9-5-4.7c-2.6,0.1-4.6,2.4-4.5,5
		C11.3,12.4,13.5,14.5,16.1,14.4z"/>
</g>
</svg>
